{
    "swagger": "2.0",
    "info": {
        "description": "This is a product service.",
        "title": "Swagger product API",
        "termsOfService": "http://swagger.io/terms/",
        "contact": {
            "name": "Azam",
            "url": "http://www.swagger.io/support",
            "email": "alievazam.200@swagger.io"
        },
        "version": "1.0"
    },
    "paths": {
        "/v1/category": {
            "post": {
                "description": "Creates new category",
                "consumes": [
                    "application/json"
                ],
                "produces": [
                    "application/json"
                ],
                "tags": [
                    "product"
                ],
                "summary": "Create category",
                "parameters": [
                    {
                        "description": "Category",
                        "name": "product",
                        "in": "body",
                        "required": true,
                        "schema": {
                            "$ref": "#/definitions/models.Category"
                        }
                    }
                ],
                "responses": {
                    "200": {
                        "description": "OK",
                        "schema": {
                            "$ref": "#/definitions/models.Category"
                        }
                    }
                }
            }
        },
        "/v1/delete/{id}": {
            "delete": {
                "description": "Delete Product info by Id",
                "consumes": [
                    "application/json"
                ],
                "produces": [
                    "application/json"
                ],
                "tags": [
                    "product"
                ],
                "summary": "DeleteProductinfobyId",
                "parameters": [
                    {
                        "type": "integer",
                        "description": "product_id",
                        "name": "id",
                        "in": "path",
                        "required": true
                    }
                ],
                "responses": {
                    "200": {
                        "description": "OK"
                    }
                }
            }
        },
        "/v1/products": {
            "post": {
                "description": "Creates new products",
                "consumes": [
                    "application/json"
                ],
                "produces": [
                    "application/json"
                ],
                "tags": [
                    "product"
                ],
                "summary": "Create product",
                "parameters": [
                    {
                        "description": "Products",
                        "name": "product",
                        "in": "body",
                        "required": true,
                        "schema": {
                            "$ref": "#/definitions/models.ProductFullInfo"
                        }
                    }
                ],
                "responses": {
                    "200": {
                        "description": "OK",
                        "schema": {
                            "$ref": "#/definitions/models.ProductFullInfoResponse"
                        }
                    }
                }
            }
        },
        "/v1/products/{id}": {
            "get": {
                "description": "Get Product info by Id",
                "consumes": [
                    "application/json"
                ],
                "produces": [
                    "application/json"
                ],
                "tags": [
                    "product"
                ],
                "summary": "GetProductinfobyId",
                "parameters": [
                    {
                        "type": "integer",
                        "description": "product_id",
                        "name": "id",
                        "in": "path",
                        "required": true
                    }
                ],
                "responses": {
                    "200": {
                        "description": "OK",
                        "schema": {
                            "$ref": "#/definitions/models.ProductFullInfoResponse"
                        }
                    }
                }
            }
        },
        "/v1/stores": {
            "post": {
                "description": "Creates new stores",
                "consumes": [
                    "application/json"
                ],
                "produces": [
                    "application/json"
                ],
                "tags": [
                    "stores"
                ],
                "summary": "Create stores",
                "parameters": [
                    {
                        "description": "Stores",
                        "name": "stores",
                        "in": "body",
                        "required": true,
                        "schema": {
                            "$ref": "#/definitions/models.StoreRequest"
                        }
                    }
                ],
                "responses": {
                    "200": {
                        "description": "OK",
                        "schema": {
                            "$ref": "#/definitions/models.StoreResponse"
                        }
                    }
                }
            }
        },
        "/v1/stores/{id}": {
            "get": {
                "description": "Get Store info by Id",
                "consumes": [
                    "application/json"
                ],
                "produces": [
                    "application/json"
                ],
                "tags": [
                    "stores"
                ],
                "summary": "GetStoreinfobyId",
                "parameters": [
                    {
                        "type": "integer",
                        "description": "store_id",
                        "name": "id",
                        "in": "path",
                        "required": true
                    }
                ],
                "responses": {
                    "200": {
                        "description": "OK",
                        "schema": {
                            "$ref": "#/definitions/models.StoreResponse"
                        }
                    }
                }
            }
        },
        "/v1/type": {
            "post": {
                "description": "Creates new type",
                "consumes": [
                    "application/json"
                ],
                "produces": [
                    "application/json"
                ],
                "tags": [
                    "product"
                ],
                "summary": "Create type",
                "parameters": [
                    {
                        "description": "Type",
                        "name": "product",
                        "in": "body",
                        "required": true,
                        "schema": {
                            "$ref": "#/definitions/models.Type"
                        }
                    }
                ],
                "responses": {
                    "200": {
                        "description": "OK",
                        "schema": {
                            "$ref": "#/definitions/models.Type"
                        }
                    }
                }
            }
        },
        "/v1/update/{id}": {
            "post": {
                "description": "Update Product info by Id",
                "consumes": [
                    "application/json"
                ],
                "produces": [
                    "application/json"
                ],
                "tags": [
                    "product"
                ],
                "summary": "UpdateinfobyId",
                "parameters": [
                    {
                        "description": "Update",
                        "name": "product",
                        "in": "body",
                        "required": true,
                        "schema": {
                            "$ref": "#/definitions/models.Product"
                        }
                    }
                ],
                "responses": {
                    "200": {
                        "description": "OK",
                        "schema": {
                            "$ref": "#/definitions/models.Product"
                        }
                    }
                }
            }
        },
        "/v1/users": {
            "post": {
                "description": "Creates new users",
                "consumes": [
                    "application/json"
                ],
                "produces": [
                    "application/json"
                ],
                "tags": [
                    "user"
                ],
                "summary": "Create User",
                "parameters": [
                    {
                        "description": "User",
                        "name": "user",
                        "in": "body",
                        "required": true,
                        "schema": {
                            "$ref": "#/definitions/user.User"
                        }
                    }
                ],
                "responses": {
                    "200": {
                        "description": "OK",
                        "schema": {
                            "$ref": "#/definitions/user.User"
                        }
                    }
                }
            }
        }
    },
    "definitions": {
        "models.Address": {
            "type": "object",
            "properties": {
                "district": {
                    "type": "string"
                },
                "street": {
                    "type": "string"
                }
            }
        },
        "models.AddressResp": {
            "type": "object",
            "properties": {
                "district": {
                    "type": "string"
                },
                "id": {
                    "type": "integer"
                },
                "street": {
                    "type": "string"
                }
            }
        },
        "models.Category": {
            "type": "object",
            "properties": {
                "name": {
                    "type": "string"
                }
            }
        },
        "models.Product": {
            "type": "object",
            "properties": {
                "amount": {
                    "type": "integer"
                },
                "categoryId": {
                    "type": "integer"
                },
                "id": {
                    "type": "integer"
                },
                "model": {
                    "type": "string"
                },
                "name": {
                    "type": "string"
                },
                "price": {
                    "type": "number"
                },
                "typeId": {
                    "type": "integer"
                }
            }
        },
        "models.ProductFullInfo": {
            "type": "object",
            "properties": {
                "amount": {
                    "type": "integer"
                },
                "categoryId": {
                    "type": "integer"
                },
                "model": {
                    "type": "string"
                },
                "name": {
                    "type": "string"
                },
                "price": {
                    "type": "number"
                },
                "stores": {
                    "type": "array",
                    "items": {
                        "$ref": "#/definitions/models.Store"
                    }
                },
                "typeId": {
                    "type": "integer"
                }
            }
        },
        "models.ProductFullInfoResponse": {
            "type": "object",
            "properties": {
                "amount": {
                    "type": "integer"
                },
                "categoryId": {
                    "type": "integer"
                },
                "id": {
                    "type": "integer"
                },
                "model": {
                    "type": "string"
                },
                "name": {
                    "type": "string"
                },
                "price": {
                    "type": "number"
                },
                "stores": {
                    "type": "array",
                    "items": {
                        "$ref": "#/definitions/models.Store"
                    }
                },
                "typeId": {
                    "type": "integer"
                }
            }
        },
        "models.Store": {
            "type": "object",
            "properties": {
                "addresses": {
                    "type": "array",
                    "items": {
                        "$ref": "#/definitions/models.Address"
                    }
                },
                "name": {
                    "type": "string"
                }
            }
        },
        "models.StoreRequest": {
            "type": "object",
            "properties": {
                "address": {
                    "type": "array",
                    "items": {
                        "$ref": "#/definitions/models.Address"
                    }
                },
                "name": {
                    "type": "string"
                }
            }
        },
        "models.StoreResponse": {
            "type": "object",
            "properties": {
                "addressResps": {
                    "type": "array",
                    "items": {
                        "$ref": "#/definitions/models.AddressResp"
                    }
                },
                "id": {
                    "type": "integer"
                },
                "name": {
                    "type": "string"
                }
            }
        },
        "models.Type": {
            "type": "object",
            "properties": {
                "name": {
                    "type": "string"
                }
            }
        },
        "user.User": {
            "type": "object",
            "properties": {
                "code": {
                    "type": "string"
                },
                "email": {
                    "type": "string"
                },
                "firstname": {
                    "type": "string"
                },
                "id": {
                    "type": "integer"
                },
                "lastname": {
                    "type": "string"
                },
                "password": {
                    "type": "string"
                },
                "username": {
                    "type": "string"
                }
            }
        }
    }
}